<svg width="24" height="24" viewBox="0 0 24 24" fill="none" xmlns="http://www.w3.org/2000/svg">
<mask id="mask0_156_423" style="mask-type:alpha" maskUnits="userSpaceOnUse" x="0" y="0" width="24" height="24">
<rect x="24" width="24" height="24" transform="rotate(90 24 0)" fill="#D9D9D9"/>
</mask>
<g mask="url(#mask0_156_423)">
<path d="M3.075 7.325C3.25833 7.125 3.48767 7.025 3.763 7.025C4.03767 7.025 4.275 7.125 4.475 7.325L12 14.825L19.55 7.3C19.7333 7.1 19.9627 7 20.238 7C20.5127 7 20.75 7.10833 20.95 7.325C21.15 7.50833 21.25 7.73767 21.25 8.013C21.25 8.28767 21.15 8.525 20.95 8.725L12.625 17.025C12.5417 17.125 12.446 17.196 12.338 17.238C12.2293 17.2793 12.1167 17.3 12 17.3C11.8833 17.3 11.771 17.2793 11.663 17.238C11.5543 17.196 11.4583 17.125 11.375 17.025L3.05 8.7C2.85 8.51667 2.75 8.29167 2.75 8.025C2.75 7.75833 2.85833 7.525 3.075 7.325Z" fill="#FFFCFF"/>
</g>
</svg>
