<svg width="24" height="24" viewBox="0 0 24 24" fill="none" xmlns="http://www.w3.org/2000/svg">
<mask id="mask0_92_237" style="mask-type:alpha" maskUnits="userSpaceOnUse" x="0" y="0" width="24" height="24">
<rect x="24" y="24" width="24" height="24" transform="rotate(180 24 24)" fill="#D9D9D9"/>
</mask>
<g mask="url(#mask0_92_237)">
<path d="M16.675 3.075C16.875 3.25833 16.975 3.48767 16.975 3.763C16.975 4.03767 16.875 4.275 16.675 4.475L9.175 12L16.7 19.55C16.9 19.7333 17 19.9627 17 20.238C17 20.5127 16.8917 20.75 16.675 20.95C16.4917 21.15 16.2623 21.25 15.987 21.25C15.7123 21.25 15.475 21.15 15.275 20.95L6.975 12.625C6.875 12.5417 6.804 12.446 6.762 12.338C6.72067 12.2293 6.7 12.1167 6.7 12C6.7 11.8833 6.72066 11.771 6.762 11.663C6.804 11.5543 6.875 11.4583 6.975 11.375L15.3 3.05C15.4833 2.85 15.7083 2.75 15.975 2.75C16.2417 2.75 16.475 2.85833 16.675 3.075Z" fill="#FFFCFF"/>
</g>
</svg>
