<svg width="22" height="22" viewBox="0 0 22 22" fill="none" xmlns="http://www.w3.org/2000/svg">
<path d="M11 12.958L2.45801 21.5C2.18067 21.778 1.85434 21.917 1.47901 21.917C1.10434 21.917 0.778008 21.778 0.500008 21.5C0.222008 21.222 0.0830078 20.8957 0.0830078 20.521C0.0830078 20.1457 0.222008 19.8193 0.500008 19.542L9.04201 11L0.500008 2.45801C0.222008 2.18067 0.0830078 1.85434 0.0830078 1.47901C0.0830078 1.10434 0.222008 0.778008 0.500008 0.500008C0.778008 0.222008 1.10434 0.0830078 1.47901 0.0830078C1.85434 0.0830078 2.18067 0.222008 2.45801 0.500008L11 9.04201L19.542 0.500008C19.8193 0.222008 20.1457 0.0830078 20.521 0.0830078C20.8957 0.0830078 21.222 0.222008 21.5 0.500008C21.778 0.778008 21.917 1.10434 21.917 1.47901C21.917 1.85434 21.778 2.18067 21.5 2.45801L12.958 11L21.5 19.542C21.778 19.8193 21.917 20.1457 21.917 20.521C21.917 20.8957 21.778 21.222 21.5 21.5C21.222 21.778 20.8957 21.917 20.521 21.917C20.1457 21.917 19.8193 21.778 19.542 21.5L11 12.958Z" fill="#1C1B1F"/>
</svg>
