<svg width="23" height="16" viewBox="0 0 23 16" fill="none" xmlns="http://www.w3.org/2000/svg">
<path d="M0.8125 15.0312V13.1562H22.6875V15.0312H0.8125ZM0.8125 8.9375V7.0625H22.6875V8.9375H0.8125ZM0.8125 2.84375V0.96875H22.6875V2.84375H0.8125Z" fill="#1C1B1F"/>
</svg>
